Product code;Language;Category;Quantity;Price;Product name
"1";"en";"Electronics";"10";"25.00";"Product 1"
"2";"en";"Electronics";"10";"25.00";"Product 2"
"3";"en";"Electronics";"10";"25.00";"Product 3"
"4";"en";"Electronics";"10";"25.00";"Product 1"
"5";"en";"Electronics";"10";"25.00";"Product 1"
"6";"en";"Electronics";"10";"25.00";"Product 1"
"7";"en";"Electronics";"10";"25.00";"Product 1"
"8";"en";"Electronics";"10";"25.00";"Product 1"
"9";"en";"Electronics";"10";"25.00";"Product 1"
"10";"en";"Electronics";"10";"25.00";"Product 1"
"11";"en";"Electronics";"10";"25.00";"Product 1"
"12";"en";"Electronics";"10";"25.00";"Product 1"
"13";"en";"Electronics";"10";"25.00";"Product 1"
"14";"en";"Electronics";"10";"25.00";"Product 1"
"15";"en";"Electronics";"10";"25.00";"Product 1"
"16";"en";"Electronics";"10";"25.00";"Product 1"
"17";"en";"Electronics";"10";"25.00";"Product 1"
"18";"en";"Electronics";"10";"25.00";"Product 1"
"19";"en";"Electronics";"10";"25.00";"Product 1"
"20";"en";"Electronics";"10";"25.00";"Product 1"
"21";"en";"Electronics";"10";"25.00";"Product 1"
"22";"en";"Electronics";"10";"25.00";"Product 1"
"23";"en";"Electronics";"10";"25.00";"Product 1"
"24";"en";"Electronics";"10";"25.00";"Product 1"
"25";"en";"Electronics";"10";"25.00";"Product 1"
"26";"en";"Electronics";"10";"25.00";"Product 1"
"27";"en";"Electronics";"10";"25.00";"Product 1"
"28";"en";"Electronics";"10";"25.00";"Product 1"
"29";"en";"Electronics";"10";"25.00";"Product 1"
"30";"en";"Electronics";"10";"25.00";"Product 1"
"31";"en";"Electronics";"10";"25.00";"Product 1"
"32";"en";"Electronics";"10";"25.00";"Product 1"
"33";"en";"Electronics";"10";"25.00";"Product 1"
"34";"en";"Electronics";"10";"25.00";"Product 1"
"35";"en";"Electronics";"10";"25.00";"Product 1"
"36";"en";"Electronics";"10";"25.00";"Product 1"
"37";"en";"Electronics";"10";"25.00";"Product 1"
"38";"en";"Electronics";"10";"25.00";"Product 1"
"39";"en";"Electronics";"10";"25.00";"Product 1"
"40";"en";"Electronics";"10";"25.00";"Product 1"
"41";"en";"Electronics";"10";"25.00";"Product 1"
"42";"en";"Electronics";"10";"25.00";"Product 1"
"43";"en";"Electronics";"10";"25.00";"Product 1"
"44";"en";"Electronics";"10";"25.00";"Product 1"
"45";"en";"Electronics";"10";"25.00";"Product 1"
"46";"en";"Electronics";"10";"25.00";"Product 1"
"47";"en";"Electronics";"10";"25.00";"Product 1"
"48";"en";"Electronics";"10";"25.00";"Product 1"
"49";"en";"Electronics";"10";"25.00";"Product 1"
"50";"en";"Electronics";"10";"25.00";"Product 1"
"51";"en";"Electronics";"10";"25.00";"Product 1"
"52";"en";"Electronics";"10";"25.00";"Product 1"
"53";"en";"Electronics";"10";"25.00";"Product 1"
"54";"en";"Electronics";"10";"25.00";"Product 1"
"55";"en";"Electronics";"10";"25.00";"Product 1"
"56";"en";"Electronics";"10";"25.00";"Product 1"
"57";"en";"Electronics";"10";"25.00";"Product 1"
"58";"en";"Electronics";"10";"25.00";"Product 1"
"59";"en";"Electronics";"10";"25.00";"Product 1"
"60";"en";"Electronics";"10";"25.00";"Product 1"
"61";"en";"Electronics";"10";"25.00";"Product 1"
"62";"en";"Electronics";"10";"25.00";"Product 1"
"63";"en";"Electronics";"10";"25.00";"Product 1"
"64";"en";"Electronics";"10";"25.00";"Product 1"
"65";"en";"Electronics";"10";"25.00";"Product 1"
"66";"en";"Electronics";"10";"25.00";"Product 1"
"67";"en";"Electronics";"10";"25.00";"Product 1"
"68";"en";"Electronics";"10";"25.00";"Product 1"
"69";"en";"Electronics";"10";"25.00";"Product 1"
"70";"en";"Electronics";"10";"25.00";"Product 1"
"71";"en";"Electronics";"10";"25.00";"Product 1"
"72";"en";"Electronics";"10";"25.00";"Product 1"
"73";"en";"Electronics";"10";"25.00";"Product 1"
"74";"en";"Electronics";"10";"25.00";"Product 1"
"75";"en";"Electronics";"10";"25.00";"Product 1"
"76";"en";"Electronics";"10";"25.00";"Product 1"
"77";"en";"Electronics";"10";"25.00";"Product 1"
"78";"en";"Electronics";"10";"25.00";"Product 1"
"79";"en";"Electronics";"10";"25.00";"Product 1"
"80";"en";"Electronics";"10";"25.00";"Product 1"
"81";"en";"Electronics";"10";"25.00";"Product 1"
"82";"en";"Electronics";"10";"25.00";"Product 1"
"83";"en";"Electronics";"10";"25.00";"Product 1"
"84";"en";"Electronics";"10";"25.00";"Product 1"
"85";"en";"Electronics";"10";"25.00";"Product 1"
"86";"en";"Electronics";"10";"25.00";"Product 1"
"87";"en";"Electronics";"10";"25.00";"Product 1"
"88";"en";"Electronics";"10";"25.00";"Product 1"
"89";"en";"Electronics";"10";"25.00";"Product 1"
"90";"en";"Electronics";"10";"25.00";"Product 1"
"91";"en";"Electronics";"10";"25.00";"Product 1"
"92";"en";"Electronics";"10";"25.00";"Product 1"
"93";"en";"Electronics";"10";"25.00";"Product 1"
"94";"en";"Electronics";"10";"25.00";"Product 1"
"95";"en";"Electronics";"10";"25.00";"Product 1"
"96";"en";"Electronics";"10";"25.00";"Product 1"
"97";"en";"Electronics";"10";"25.00";"Product 1"
"98";"en";"Electronics";"10";"25.00";"Product 1"
"99";"en";"Electronics";"10";"25.00";"Product 1"
"100";"en";"Electronics";"10";"25.00";"Product 1"
"101";"en";"Electronics";"10";"25.00";"Product 1"
"102";"en";"Electronics";"10";"25.00";"Product 1"
"103";"en";"Electronics";"10";"25.00";"Product 1"
"104";"en";"Electronics";"10";"25.00";"Product 1"
"105";"en";"Electronics";"10";"25.00";"Product 1"
"106";"en";"Electronics";"10";"25.00";"Product 1"
"107";"en";"Electronics";"10";"25.00";"Product 1"
"108";"en";"Electronics";"10";"25.00";"Product 1"
"109";"en";"Electronics";"10";"25.00";"Product 1"
"110";"en";"Electronics";"10";"25.00";"Product 1"
"111";"en";"Electronics";"10";"25.00";"Product 1"
"112";"en";"Electronics";"10";"25.00";"Product 1"
"113";"en";"Electronics";"10";"25.00";"Product 1"
"114";"en";"Electronics";"10";"25.00";"Product 1"
"115";"en";"Electronics";"10";"25.00";"Product 1"
"116";"en";"Electronics";"10";"25.00";"Product 1"
"117";"en";"Electronics";"10";"25.00";"Product 1"
"118";"en";"Electronics";"10";"25.00";"Product 1"
"119";"en";"Electronics";"10";"25.00";"Product 1"
"120";"en";"Electronics";"10";"25.00";"Product 1"
"121";"en";"Electronics";"10";"25.00";"Product 1"


